{
  "storage": {
    "input": {
      "files": [],
      "tables": [
        {
          "source": "in.c-test.test",
          "destination": "test.csv",
          "limit": 50,
          "columns": [],
          "where_values": [],
          "where_operator": "eq"
        }
      ]
    },
    "output": {
      "files": [],
      "tables": []
    }
  },
  "parameters": {
          "fixed_header": [
            "Event_ID",
            "typE",
            "Type",
            "Campaign_Name",
            "Status",
            "Start_Date",
            "End_Date",
            "Location",
            "Eventbrite_link"
          ],
        "ignore_casing": false
        },
  "image_parameters": {
    "syrup_url": "https://syrup.keboola.com/"
  },
  "authorization": {
    "oauth_api": {
      "id": "OAUTH_API_ID",
      "credentials": {
        "id": "main",
        "authorizedFor": "Myself",
        "creator": {
          "id": "1234",
          "description": "me@keboola.com"
        },
        "created": "2016-01-31 00:13:30",
        "#data": "{\"refresh_token\":\"MCWBkfdK9m5YK*Oqahwm6XN6elMAEwcH5kYcK8Ku!bpiOgSDZN9MQIzunpMsh6LyKH0i!7OcwwwajuxPfvm2PrrWYSs*HerDr2ZSJ39pqHJcvwUNIvHdtcgFFr3Em*yhn3GKBwM2p9UrjtgdAriSDny5YgUYGuI3gYJY1ypD*wBaAOzzeeXZx6CdgjruJ7gboTAngbWk3CzO9rORIwXAAlGUH6ZgBQJL3AwkYVMRFV4BvIvDAMF*0DcGDyrcyYDw9X3vYn*Wy!OqgrenKCGowdJk0C0136SUv4PJI383y76UMim6Q7KGDj7Lf!K2N2FDbxsz2iZKZTBr2vHx8pEC1oBc$\"}",
        "oauthVersion": "2.0",
        "appKey": "000000004C184A49",
        "#appSecret": "vBAYak49pVK1zghHAgDH4tCSCNlT-CiN"
      }
    }
  }
}
